hw1/dump.vcd
$date
	Thu Feb  4 20:42:17 2016
$end
$version
	ModelSim Version 5.8b
$end
$timescale
	1ns
$end
$scope module seqdec_53_bench $end
$var reg 1 ! InA $end
$var wire 1 " Clk $end
$var wire 1 # Reset $end
$var wire 1 $ Out $end
$var reg 128 % sequenc [127:0] $end
$var integer 32 & k $end
$var reg 8 ' seq [7:0] $end
$var reg 8 ( seqp1 [7:0] $end
$var wire 1 ) err $end
$scope module DUT $end
$var wire 1 " Clk $end
$var wire 1 # Reset $end
$var wire 1 * InA $end
$var wire 1 $ Out $end
$var wire 1 + state [3] $end
$var wire 1 , state [2] $end
$var wire 1 - state [1] $end
$var wire 1 . state [0] $end
$var wire 1 / next_state [3] $end
$var wire 1 0 next_state [2] $end
$var wire 1 1 next_state [1] $end
$var wire 1 2 next_state [0] $end
$scope module state_reg $end
$var wire 1 / next_state [3] $end
$var wire 1 0 next_state [2] $end
$var wire 1 1 next_state [1] $end
$var wire 1 2 next_state [0] $end
$var wire 1 + state [3] $end
$var wire 1 , state [2] $end
$var wire 1 - state [1] $end
$var wire 1 . state [0] $end
$var wire 1 " Clk $end
$var wire 1 # Reset $end
$scope module state_flops[3] $end
$var wire 1 + q $end
$var wire 1 / d $end
$var wire 1 " clk $end
$var wire 1 # rst $end
$var reg 1 3 state $end
$upscope $end
$scope module state_flops[2] $end
$var wire 1 , q $end
$var wire 1 0 d $end
$var wire 1 " clk $end
$var wire 1 # rst $end
$var reg 1 4 state $end
$upscope $end
$scope module state_flops[1] $end
$var wire 1 - q $end
$var wire 1 1 d $end
$var wire 1 " clk $end
$var wire 1 # rst $end
$var reg 1 5 state $end
$upscope $end
$scope module state_flops[0] $end
$var wire 1 . q $end
$var wire 1 2 d $end
$var wire 1 " clk $end
$var wire 1 # rst $end
$var reg 1 6 state $end
$upscope $end
$upscope $end
$scope module st_logic $end
$var wire 1 * InA $end
$var wire 1 + state [3] $end
$var wire 1 , state [2] $end
$var wire 1 - state [1] $end
$var wire 1 . state [0] $end
$var reg 4 7 next_state [3:0] $end
$var wire 1 $ Out $end
$upscope $end
$upscope $end
$scope module my_ckrst $end
$var reg 1 8 clk $end
$var reg 1 9 rst $end
$var wire 1 ) err $end
$var integer 32 : cycle_count $end
$upscope $end
$upscope $end
$enddefinitions $end
#0
$dumpvars
0!
b1010001000010100001010100101110010111001000010100001000101001101010011001010001010000010000101100101110100001001010011 %
b0 &
b0 '
b0 (
18
19
b1 :
b1 7
06
05
04
03
x+
12
01
00
0/
0*
1"
1#
x$
0)
x.
x-
x,
$end
#1
0+
0$
0,
0-
0.
#50
08
0"
#100
18
b10 :
1"
#150
08
0"
#200
18
b11 :
1"
#201
09
0#
#250
08
0"
#300
18
b100 :
1"
16
b1 &
#301
1.
#350
08
0"
#400
18
b101 :
1"
b10 &
#450
08
0"
#500
18
b110 :
1"
b11 &
#550
08
0"
#600
18
b111 :
1"
b100 &
#650
08
0"
#700
18
b1000 :
1"
b101 &
#750
08
0"
#800
18
b1001 :
1"
b110 &
#850
08
0"
#900
18
b1010 :
1"
b111 &
#950
08
0"
#1000
18
b1011 :
1"
b1000 &
#1050
08
0"
#1100
18
b1100 :
1"
b1001 &
#1150
08
0"
#1200
18
b1101 :
1"
b1010 &
#1250
08
0"
#1300
18
b1110 :
1"
1!
b1011 &
1*
b1 '
b10 7
02
11
#1350
08
0"
#1400
18
b1111 :
1"
06
15
0!
b1100 &
0*
b11 '
b10 '
b1 (
b1 7
12
01
#1401
1-
0.
b11 7
11
#1450
08
0"
#1500
18
b10000 :
1"
16
1!
b1101 &
1*
b100 '
b101 '
b10 (
b0 7
02
01
#1501
1.
b100 7
10
#1550
08
0"
#1600
18
b10001 :
1"
06
05
14
0!
b1110 &
0*
b1011 '
b1010 '
b101 (
b1 7
12
00
#1601
1,
0-
0.
b101 7
10
#1650
08
0"
#1700
18
b10010 :
1"
16
b1111 &
b10100 '
b1010 (
#1701
1.
b110 7
02
11
#1750
08
0"
#1800
18
b10011 :
1"
06
15
b10000 &
b101000 '
b10100 (
#1801
1-
0.
b1 7
12
01
00
#1850
08
0"
#1900
18
b10100 :
1"
16
05
04
1!
b10001 &
1*
b1010000 '
b1010001 '
b101000 (
b111 7
11
10
#1901
0,
0-
1.
b10 7
02
00
#1950
08
0"
#2000
18
b10101 :
1"
06
15
0!
b10010 &
0*
b10100011 '
b10100010 '
b1010001 (
b1 7
12
01
#2001
1-
0.
b11 7
11
#2050
08
0"
#2100
18
b10110 :
1"
16
b10011 &
b1000100 '
b10100010 (
#2101
1.
b1 7
01
#2150
08
0"
#2200
18
b10111 :
1"
05
b10100 &
b10001000 '
b1000100 (
#2201
0-
#2250
08
0"
#2300
18
b11000 :
1"
b10101 &
b10000 '
b10001000 (
#2350
08
0"
#2400
18
b11001 :
1"
1!
b10110 &
1*
b100000 '
b100001 '
b10000 (
b10 7
02
11
#2450
08
0"
#2500
18
b11010 :
1"
06
15
0!
b10111 &
0*
b1000011 '
b1000010 '
b100001 (
b1 7
12
01
#2501
1-
0.
b11 7
11
#2550
08
0"
#2600
18
b11011 :
1"
16
1!
b11000 &
1*
b10000100 '
b10000101 '
b1000010 (
b0 7
02
01
#2601
1.
b100 7
10
#2650
08
0"
#2700
18
b11100 :
1"
06
05
14
0!
b11001 &
0*
b1011 '
b1010 '
b10000101 (
b1 7
12
00
#2701
1,
0-
0.
b101 7
10
#2750
08
0"
#2800
18
b11101 :
1"
16
b11010 &
b10100 '
b1010 (
#2801
1.
b110 7
02
11
#2850
08
0"
#2900
18
b11110 :
1"
06
15
b11011 &
b101000 '
b10100 (
#2901
1-
0.
b1 7
12
01
00
#2950
08
0"
#3000
18
b11111 :
1"
16
05
04
b11100 &
b1010000 '
b101000 (
#3001
0,
0-
1.
#3050
08
0"
#3100
18
b100000 :
1"
1!
b11101 &
1*
b10100000 '
b10100001 '
b1010000 (
b10 7
02
11
#3150
08
0"
#3200
18
b100001 :
1"
06
15
0!
b11110 &
0*
b1000011 '
b1000010 '
b10100001 (
b1 7
12
01
#3201
1-
0.
b11 7
11
#3250
08
0"
#3300
18
b100010 :
1"
16
1!
b11111 &
1*
b10000100 '
b10000101 '
b1000010 (
b0 7
02
01
#3301
1.
b100 7
10
#3350
08
0"
#3400
18
b100011 :
1"
06
05
14
0!
b100000 &
0*
b1011 '
b1010 '
b10000101 (
b1 7
12
00
#3401
1,
0-
0.
b101 7
10
#3450
08
0"
#3500
18
b100100 :
1"
16
1!
b100001 &
1*
b10100 '
b10101 '
b1010 (
b0 7
02
00
#3501
1.
#3550
08
0"
#3600
18
b100101 :
1"
06
04
0!
b100010 &
0*
b101011 '
b101010 '
b10101 (
b110 7
11
10
#3601
0,
0.
b1 7
12
01
00
#3650
08
0"
#3700
18
b100110 :
1"
16
b100011 &
b1010100 '
b101010 (
#3701
1.
#3750
08
0"
#3800
18
b100111 :
1"
1!
b100100 &
1*
b10101000 '
b10101001 '
b1010100 (
b10 7
02
11
#3850
08
0"
#3900
18
b101000 :
1"
06
15
0!
b100101 &
0*
b1010011 '
b1010010 '
b10101001 (
b1 7
12
01
#3901
1-
0.
b11 7
11
#3950
08
0"
#4000
18
b101001 :
1"
16
1!
b100110 &
1*
b10100100 '
b10100101 '
b1010010 (
b0 7
02
01
#4001
1.
b100 7
10
#4050
08
0"
#4100
18
b101010 :
1"
06
05
14
b100111 &
b1001011 '
b10100101 (
#4101
1,
0-
0.
b0 7
00
#4150
08
0"
#4200
18
b101011 :
1"
04
b101000 &
b10010111 '
b1001011 (
#4201
0,
#4250
08
0"
#4300
18
b101100 :
1"
0!
b101001 &
0*
b101111 '
b101110 '
b10010111 (
b1 7
12
#4350
08
0"
#4400
18
b101101 :
1"
16
b101010 &
b1011100 '
b101110 (
#4401
1.
#4450
08
0"
#4500
18
b101110 :
1"
1!
b101011 &
1*
b10111000 '
b10111001 '
b1011100 (
b10 7
02
11
#4550
08
0"
#4600
18
b101111 :
1"
06
15
0!
b101100 &
0*
b1110011 '
b1110010 '
b10111001 (
b1 7
12
01
#4601
1-
0.
b11 7
11
#4650
08
0"
#4700
18
b110000 :
1"
16
1!
b101101 &
1*
b11100100 '
b11100101 '
b1110010 (
b0 7
02
01
#4701
1.
b100 7
10
#4750
08
0"
#4800
18
b110001 :
1"
06
05
14
b101110 &
b11001011 '
b11100101 (
#4801
1,
0-
0.
b0 7
00
#4850
08
0"
#4900
18
b110010 :
1"
04
b101111 &
b10010111 '
b11001011 (
#4901
0,
#4950
08
0"
#5000
18
b110011 :
1"
0!
b110000 &
0*
b101111 '
b101110 '
b10010111 (
b1 7
12
#5050
08
0"
#5100
18
b110100 :
1"
16
b110001 &
b1011100 '
b101110 (
#5101
1.
#5150
08
0"
#5200
18
b110101 :
1"
1!
b110010 &
1*
b10111000 '
b10111001 '
b1011100 (
b10 7
02
11
#5250
08
0"
#5300
18
b110110 :
1"
06
15
0!
b110011 &
0*
b1110011 '
b1110010 '
b10111001 (
b1 7
12
01
#5301
1-
0.
b11 7
11
#5350
08
0"
#5400
18
b110111 :
1"
16
b110100 &
b11100100 '
b1110010 (
#5401
1.
b1 7
01
#5450
08
0"
#5500
18
b111000 :
1"
05
b110101 &
b11001000 '
b11100100 (
#5501
0-
#5550
08
0"
#5600
18
b111001 :
1"
b110110 &
b10010000 '
b11001000 (
#5650
08
0"
#5700
18
b111010 :
1"
1!
b110111 &
1*
b100000 '
b100001 '
b10010000 (
b10 7
02
11
#5750
08
0"
#5800
18
b111011 :
1"
06
15
0!
b111000 &
0*
b1000011 '
b1000010 '
b100001 (
b1 7
12
01
#5801
1-
0.
b11 7
11
#5850
08
0"
#5900
18
b111100 :
1"
16
1!
b111001 &
1*
b10000100 '
b10000101 '
b1000010 (
b0 7
02
01
#5901
1.
b100 7
10
#5950
08
0"
#6000
18
b111101 :
1"
06
05
14
0!
b111010 &
0*
b1011 '
b1010 '
b10000101 (
b1 7
12
00
#6001
1,
0-
0.
b101 7
10
#6050
08
0"
#6100
18
b111110 :
1"
16
b111011 &
b10100 '
b1010 (
#6101
1.
b110 7
02
11
#6150
08
0"
#6200
18
b111111 :
1"
06
15
b111100 &
b101000 '
b10100 (
#6201
1-
0.
b1 7
12
01
00
#6250
08
0"
#6300
18
b1000000 :
1"
16
05
04
b111101 &
b1010000 '
b101000 (
#6301
0,
0-
1.
#6350
08
0"
#6400
18
b1000001 :
1"
1!
b111110 &
1*
b10100000 '
b10100001 '
b1010000 (
b10 7
02
11
#6450
08
0"
#6500
18
b1000010 :
1"
06
15
0!
b111111 &
0*
b1000011 '
b1000010 '
b10100001 (
b1 7
12
01
#6501
1-
0.
b11 7
11
#6550
08
0"
#6600
18
b1000011 :
1"
16
b1000000 &
b10000100 '
b1000010 (
#6601
1.
b1 7
01
#6650
08
0"
#6700
18
b1000100 :
1"
05
b1000001 &
b1000 '
b10000100 (
#6701
0-
#6750
08
0"
#6800
18
b1000101 :
1"
1!
b1000010 &
1*
b10000 '
b10001 '
b1000 (
b10 7
02
11
#6850
08
0"
#6900
18
b1000110 :
1"
06
15
0!
b1000011 &
0*
b100011 '
b100010 '
b10001 (
b1 7
12
01
#6901
1-
0.
b11 7
11
#6950
08
0"
#7000
18
b1000111 :
1"
16
1!
b1000100 &
1*
b1000100 '
b1000101 '
b100010 (
b0 7
02
01
#7001
1.
b100 7
10
#7050
08
0"
#7100
18
b1001000 :
1"
06
05
14
0!
b1000101 &
0*
b10001011 '
b10001010 '
b1000101 (
b1 7
12
00
#7101
1,
0-
0.
b101 7
10
#7150
08
0"
#7200
18
b1001001 :
1"
16
b1000110 &
b10100 '
b10001010 (
#7201
1.
b110 7
02
11
#7250
08
0"
#7300
18
b1001010 :
1"
06
15
1!
b1000111 &
1*
b101000 '
b101001 '
b10100 (
b0 7
01
00
#7301
1-
0.
b111 7
12
11
10
#7350
08
0"
#7400
18
b1001011 :
1"
16
b1001000 &
b1010011 '
b101001 (
#7401
1.
b1000 7
02
01
00
1/
#7450
08
0"
#7500
18
b1001100 :
1"
06
05
04
13
0!
b1001001 &
0*
b10100111 '
b10100110 '
b1010011 (
b1 7
12
0/
#7501
1+
1$
0,
0-
0.
#7550
08
0"
#7600
18
b1001101 :
1"
16
03
1!
b1001010 &
1*
b1001100 '
b1001101 '
b10100110 (
b0 7
02
#7601
0+
0$
1.
b10 7
11
#7650
08
0"
#7700
18
b1001110 :
1"
06
15
0!
b1001011 &
0*
b10011011 '
b10011010 '
b1001101 (
b1 7
12
01
#7701
1-
0.
b11 7
11
#7750
08
0"
#7800
18
b1001111 :
1"
16
1!
b1001100 &
1*
b110100 '
b110101 '
b10011010 (
b0 7
02
01
#7801
1.
b100 7
10
#7850
08
0"
#7900
18
b1010000 :
1"
06
05
14
0!
b1001101 &
0*
b1101011 '
b1101010 '
b110101 (
b1 7
12
00
#7901
1,
0-
0.
b101 7
10
#7950
08
0"
#8000
18
b1010001 :
1"
16
b1001110 &
b11010100 '
b1101010 (
#8001
1.
b110 7
02
11
#8050
08
0"
#8100
18
b1010010 :
1"
06
15
1!
b1001111 &
1*
b10101000 '
b10101001 '
b11010100 (
b0 7
01
00
#8101
1-
0.
b111 7
12
11
10
#8150
08
0"
#8200
18
b1010011 :
1"
16
b1010000 &
b1010011 '
b10101001 (
#8201
1.
b1000 7
02
01
00
1/
#8250
08
0"
#8300
18
b1010100 :
1"
06
05
04
13
0!
b1010001 &
0*
b10100111 '
b10100110 '
b1010011 (
b1 7
12
0/
#8301
1+
1$
0,
0-
0.
#8350
08
0"
#8400
18
b1010101 :
1"
16
03
b1010010 &
b1001100 '
b10100110 (
#8401
0+
0$
1.
#8450
08
0"
#8500
18
b1010110 :
1"
1!
b1010011 &
1*
b10011000 '
b10011001 '
b1001100 (
b10 7
02
11
#8550
08
0"
#8600
18
b1010111 :
1"
06
15
0!
b1010100 &
0*
b110011 '
b110010 '
b10011001 (
b1 7
12
01
#8601
1-
0.
b11 7
11
#8650
08
0"
#8700
18
b1011000 :
1"
16
1!
b1010101 &
1*
b1100100 '
b1100101 '
b110010 (
b0 7
02
01
#8701
1.
b100 7
10
#8750
08
0"
#8800
18
b1011001 :
1"
06
05
14
0!
b1010110 &
0*
b11001011 '
b11001010 '
b1100101 (
b1 7
12
00
#8801
1,
0-
0.
b101 7
10
#8850
08
0"
#8900
18
b1011010 :
1"
16
b1010111 &
b10010100 '
b11001010 (
#8901
1.
b110 7
02
11
#8950
08
0"
#9000
18
b1011011 :
1"
06
15
b1011000 &
b101000 '
b10010100 (
#9001
1-
0.
b1 7
12
01
00
#9050
08
0"
#9100
18
b1011100 :
1"
16
05
04
1!
b1011001 &
1*
b1010000 '
b1010001 '
b101000 (
b111 7
11
10
#9101
0,
0-
1.
b10 7
02
00
#9150
08
0"
#9200
18
b1011101 :
1"
06
15
0!
b1011010 &
0*
b10100011 '
b10100010 '
b1010001 (
b1 7
12
01
#9201
1-
0.
b11 7
11
#9250
08
0"
#9300
18
b1011110 :
1"
16
1!
b1011011 &
1*
b1000100 '
b1000101 '
b10100010 (
b0 7
02
01
#9301
1.
b100 7
10
#9350
08
0"
#9400
18
b1011111 :
1"
06
05
14
0!
b1011100 &
0*
b10001011 '
b10001010 '
b1000101 (
b1 7
12
00
#9401
1,
0-
0.
b101 7
10
#9450
08
0"
#9500
18
b1100000 :
1"
16
b1011101 &
b10100 '
b10001010 (
#9501
1.
b110 7
02
11
#9550
08
0"
#9600
18
b1100001 :
1"
06
15
b1011110 &
b101000 '
b10100 (
#9601
1-
0.
b1 7
12
01
00
#9650
08
0"
#9700
18
b1100010 :
1"
16
05
04
b1011111 &
b1010000 '
b101000 (
#9701
0,
0-
1.
#9750
08
0"
#9800
18
b1100011 :
1"
b1100000 &
b10100000 '
b1010000 (
#9850
08
0"
#9900
18
b1100100 :
1"
1!
b1100001 &
1*
b1000000 '
b1000001 '
b10100000 (
b10 7
02
11
#9950
08
0"
#10000
18
b1100101 :
1"
06
15
0!
b1100010 &
0*
b10000011 '
b10000010 '
b1000001 (
b1 7
12
01
#10001
1-
0.
b11 7
11
#10050
08
0"
#10100
18
b1100110 :
1"
16
b1100011 &
b100 '
b10000010 (
#10101
1.
b1 7
01
#10150
08
0"
#10200
18
b1100111 :
1"
05
b1100100 &
b1000 '
b100 (
#10201
0-
#10250
08
0"
#10300
18
b1101000 :
1"
b1100101 &
b10000 '
b1000 (
#10350
08
0"
#10400
18
b1101001 :
1"
1!
b1100110 &
1*
b100000 '
b100001 '
b10000 (
b10 7
02
11
#10450
08
0"
#10500
18
b1101010 :
1"
06
15
0!
b1100111 &
0*
b1000011 '
b1000010 '
b100001 (
b1 7
12
01
#10501
1-
0.
b11 7
11
#10550
08
0"
#10600
18
b1101011 :
1"
16
1!
b1101000 &
1*
b10000100 '
b10000101 '
b1000010 (
b0 7
02
01
#10601
1.
b100 7
10
#10650
08
0"
#10700
18
b1101100 :
1"
06
05
14
b1101001 &
b1011 '
b10000101 (
#10701
1,
0-
0.
b0 7
00
#10750
08
0"
#10800
18
b1101101 :
1"
04
0!
b1101010 &
0*
b10111 '
b10110 '
b1011 (
b101 7
12
10
#10801
0,
b1 7
00
#10850
08
0"
#10900
18
b1101110 :
1"
16
b1101011 &
b101100 '
b10110 (
#10901
1.
#10950
08
0"
#11000
18
b1101111 :
1"
1!
b1101100 &
1*
b1011000 '
b1011001 '
b101100 (
b10 7
02
11
#11050
08
0"
#11100
18
b1110000 :
1"
06
15
0!
b1101101 &
0*
b10110011 '
b10110010 '
b1011001 (
b1 7
12
01
#11101
1-
0.
b11 7
11
#11150
08
0"
#11200
18
b1110001 :
1"
16
1!
b1101110 &
1*
b1100100 '
b1100101 '
b10110010 (
b0 7
02
01
#11201
1.
b100 7
10
#11250
08
0"
#11300
18
b1110010 :
1"
06
05
14
b1101111 &
b11001011 '
b1100101 (
#11301
1,
0-
0.
b0 7
00
#11350
08
0"
#11400
18
b1110011 :
1"
04
b1110000 &
b10010111 '
b11001011 (
#11401
0,
#11450
08
0"
#11500
18
b1110100 :
1"
0!
b1110001 &
0*
b101111 '
b101110 '
b10010111 (
b1 7
12
#11550
08
0"
#11600
18
b1110101 :
1"
16
1!
b1110010 &
1*
b1011100 '
b1011101 '
b101110 (
b0 7
02
#11601
1.
b10 7
11
#11650
08
0"
#11700
18
b1110110 :
1"
06
15
0!
b1110011 &
0*
b10111011 '
b10111010 '
b1011101 (
b1 7
12
01
#11701
1-
0.
b11 7
11
#11750
08
0"
#11800
18
b1110111 :
1"
16
b1110100 &
b1110100 '
b10111010 (
#11801
1.
b1 7
01
#11850
08
0"
#11900
18
b1111000 :
1"
05
b1110101 &
b11101000 '
b1110100 (
#11901
0-
#11950
08
0"
#12000
18
b1111001 :
1"
b1110110 &
b11010000 '
b11101000 (
#12050
08
0"
#12100
18
b1111010 :
1"
1!
b1110111 &
1*
b10100000 '
b10100001 '
b11010000 (
b10 7
02
11
#12150
08
0"
#12200
18
b1111011 :
1"
06
15
0!
b1111000 &
0*
b1000011 '
b1000010 '
b10100001 (
b1 7
12
01
#12201
1-
0.
b11 7
11
#12250
08
0"
#12300
18
b1111100 :
1"
16
b1111001 &
b10000100 '
b1000010 (
#12301
1.
b1 7
01
#12350
08
0"
#12400
18
b1111101 :
1"
05
1!
b1111010 &
1*
b1000 '
b1001 '
b10000100 (
b100 7
02
10
#12401
0-
b10 7
11
00
#12450
08
0"
#12500
18
b1111110 :
1"
06
15
0!
b1111011 &
0*
b10011 '
b10010 '
b1001 (
b1 7
12
01
#12501
1-
0.
b11 7
11
#12550
08
0"
#12600
18
b1111111 :
1"
16
1!
b1111100 &
1*
b100100 '
b100101 '
b10010 (
b0 7
02
01
#12601
1.
b100 7
10
#12650
08
0"
#12700
18
b10000000 :
1"
06
05
14
0!
b1111101 &
0*
b1001011 '
b1001010 '
b100101 (
b1 7
12
00
#12701
1,
0-
0.
b101 7
10
#12750
08
0"
#12800
18
b10000001 :
1"
16
b1111110 &
b10010100 '
b1001010 (
#12801
1.
b110 7
02
11
#12850
08
0"
#12900
18
b10000010 :
1"
06
15
1!
b1111111 &
1*
b101000 '
b101001 '
b10010100 (
b0 7
01
00
#12901
1-
0.
b111 7
12
11
10
#12950
08
0"
#13000
18
b10000011 :
1"
16
b10000000 &
